{
  "page": 1,
  "total_results": 1809,
  "total_pages": 91,
  "results": [
    {
      "vote_count": 14622,
      "popularity": 120.166,
      "id": 284053,
      "video": false,
      "media_type": "movie",
      "vote_average": 7.6,
      "title": "Thor: Tag der Entscheidung",
      "release_date": "2017-10-31",
      "original_language": "en",
      "original_title": "Thor: Ragnarok",
      "genre_ids": [28, 12, 35, 14],
      "backdrop_path": "/kaIfm5ryEOwYg8mLbq8HkPuM1Fo.jpg",
      "adult": false,
      "overview": "Donnergott Thor wird auf der anderen Seite des Universums gefangengenommen. Ohne seinen nützlichen Hammer Mjölnir scheint eine Flucht nahezu ausgeschlossen. Dabei läuft ihm allmählich die Zeit davon. Denn die ebenso mächtige wie erbarmungslose Hela, die nach jahrtausendlanger Gefangenschaft aus ihrem Gefängnis freigekommen ist, macht sich daran, die Macht auf Thors Heimatwelt Asgard zu übernehmen. Um das zu verhindern, setzt Thor alles daran, nach Hause zurückzukehren. Zwischen ihm und seiner Freiheit stehen jedoch tödliche Gladiatorenkämpfe auf dem Planeten Sakaar, die Mülldeponie des Universums. Bei einem dieser Duelle trifft Thor auf den Ex-Avenger und seinen früheren Mitstreiter Hulk den beliebtesten und erfolgreichsten Kämpfer auf Sakaar…",
      "poster_path": "/uxxYhdSIsVOzmvUtDugBwEACbW9.jpg"
    },
    {
      "vote_count": 15396,
      "popularity": 67.328,
      "id": 10195,
      "video": false,
      "media_type": "movie",
      "vote_average": 6.8,
      "title": "Thor",
      "release_date": "2011-04-27",
      "original_language": "en",
      "original_title": "Thor",
      "genre_ids": [12, 14, 28],
      "backdrop_path": "/c5tewtijj6aixi8zwwPuYJxifBA.jpg",
      "adult": false,
      "overview": "Der mächtige Thor ist ein überragender Krieger im Königreich Asgard, dessen Überheblichkeit und Arroganz seine größte Schwäche ist. Wegen seiner Gedankenlosigkeit wird ein lange vergessen geglaubter Krieg neu entfacht. Die Strafe folgt umgehend: Unter den Menschen soll Thor auf der Erde Demut lernen, was dem Krieger zunächst nicht leicht fällt. Doch dann ist er zur Stelle, als es die Menschheit mit einem übermächtigen Gegner zu tun bekommt, der Unterstützung aus Asgard zu erhalten scheint.",
      "poster_path": "/wtHxoL3zFjIrjZBCGlRTb8ao1IW.jpg"
    },
    {
      "poster_path": "/fijbcjmPIR9KLkzLdWxNlzyCOZA.jpg",
      "popularity": 58.766,
      "vote_count": 12428,
      "video": false,
      "media_type": "movie",
      "id": 76338,
      "adult": false,
      "backdrop_path": "/uhYoytlNaq46dG81wLmHqaSuzWu.jpg",
      "original_language": "en",
      "original_title": "Thor: The Dark World",
      "genre_ids": [28, 12, 14],
      "title": "Thor - The Dark Kingdom",
      "vote_average": 6.6,
      "overview": "Thor und Loki kehren in ihre Heimat Asgard zurück, wo Göttervater Odin darüber entscheidet, wie mit dem adoptierten Prinzen verfahren werden soll. Währenddessen erhebt sich eine andere Macht in einem der 9 Realms. Der Dunkelelf Malekith scharrt eine Armee uralter Wesen und Monster um sich, mit denen er nicht nur Asgard, sondern den ganzen Kosmos bedroht.  Der Donnergott trifft in Thor 2: The Dark Kingdom auf seine Angebetete Jane, die von einem Dämon besessen ist, dessen Verbingung mit den Dunkelelfen sehr nahe liegt. Thor muss also nicht nur seine Menschenfreundin retten, sondern auch eine eigene Streitkraft zusammenstellen, mit der er Malekith besiegen kann. Dafür muss er in die düstersten Ecken Asgards vordringen, wobei ihm jedoch nur eine Person helfen kann: Loki.",
      "release_date": "2013-10-31"
    },
    {
      "poster_path": "/g3Xba32JckNniqHUobP3UgPq31o.jpg",
      "popularity": 18.47,
      "vote_count": 138,
      "video": false,
      "media_type": "movie",
      "id": 101907,
      "adult": false,
      "backdrop_path": "/1y6dEBTOzCyJRetN9fOtS0H7Vnx.jpg",
      "original_language": "en",
      "original_title": "Hulk vs. Thor",
      "genre_ids": [28, 16, 14, 878],
      "title": "Hulk vs. Thor",
      "vote_average": 6.6,
      "overview": "In Hulk vs. Thor weilt Hulk in Asgard, der Heimat der nordischen Götter. Schlitzohr Loki hat ihn dort hingebracht, um während der Abwesenheit von Odin die Herrschaft über Asgard an sich zu reißen. Doch er hat die Rechnung ohne Donnergott Thor gemacht.",
      "release_date": "2011-09-19"
    },
    {
      "poster_path": "/lrPMm9aFndk556vbRfnv0F8mrlS.jpg",
      "popularity": 18.241,
      "vote_count": 0,
      "video": false,
      "media_type": "movie",
      "id": 616037,
      "adult": false,
      "backdrop_path": "/qB3HdCZKHWU33k9QYTIZaM4v5qo.jpg",
      "original_language": "en",
      "original_title": "Thor: Love and Thunder",
      "genre_ids": [28, 12, 35, 14, 878],
      "title": "Thor: Love and Thunder",
      "vote_average": 0,
      "overview": "",
      "release_date": "2022-02-10"
    },
    {
      "poster_path": "/mr6naai1l7QUQwOYNUZx7qRMJ4u.jpg",
      "popularity": 9.177,
      "vote_count": 33,
      "video": false,
      "media_type": "movie",
      "id": 63736,
      "adult": false,
      "backdrop_path": "/bOmOKlujruO0fudftYCqxNR6Xd1.jpg",
      "original_language": "en",
      "original_title": "Almighty Thor",
      "genre_ids": [12, 14],
      "title": "Thor - Der Allmächtige",
      "vote_average": 2.4,
      "overview": "Als der dämonische Gott Loki die Festung Walhalla zerstört und den Hammer der Unbesiegbarkeit stiehlt, kann nur der heldenhafte Donnergott Thor – Der Allmächtige die Welt vor dem Untergang bewahren!",
      "release_date": "2011-07-01"
    },
    {
      "poster_path": "/nEOR6wG7C4ITVlJnh6MBgygTxcQ.jpg",
      "popularity": 8.869,
      "vote_count": 338,
      "video": false,
      "media_type": "movie",
      "id": 413279,
      "adult": false,
      "backdrop_path": "/vPulxYsMtqSsYDlqtCC4EB2KvDf.jpg",
      "original_language": "en",
      "original_title": "Team Thor",
      "genre_ids": [35, 99, 14, 878],
      "title": "Team Thor",
      "vote_average": 7.6,
      "overview": "",
      "release_date": "2016-08-28"
    },
    {
      "poster_path": "/zZ8vX4qeeeTEO5ATiK7xbaBi9ql.jpg",
      "popularity": 9.73,
      "vote_count": 99,
      "video": false,
      "media_type": "movie",
      "id": 63686,
      "adult": false,
      "backdrop_path": "/sYtby8VBJnEBG6X9dH3CVIgzQO2.jpg",
      "original_language": "en",
      "original_title": "Thor: Tales of Asgard",
      "genre_ids": [28, 12, 16],
      "title": "Thor: Tales of Asgard",
      "vote_average": 6.4,
      "overview": "Die Vorgeschichte von Thor – bevor er zum Krieger mit dem mächtigen Hammer wurde: Gemeinsam mit seinem Bruder Loki und den drei Kämpfern Fandral, Hogun und Volstagg bricht der junge Thor auf ein Abenteuer auf, um das legendäre Schwert von Surtur zu finden. Was als harmlose Schatzsuche begann, soll sich bald zu einem blutigen Kampf um Leben und Tod entwickeln, denn das Schwert ist in die falschen Hände geraten und nun ist Asgard, die Heimat der Asen, in Gefahr! Den Gefährten steht ein schwerer Kampf mit mysteriösen Flügelwesen und Eisriesen bevor…",
      "release_date": "2011-09-19"
    },
    {
      "poster_path": "/t5FhxKfIbSvn4fiq7nCcGL8AA3O.jpg",
      "popularity": 7.245,
      "vote_count": 11,
      "video": false,
      "media_type": "movie",
      "id": 325758,
      "adult": false,
      "backdrop_path": "/1KHXFHTLxuTAhXBnlRJNpd5ZRxZ.jpg",
      "original_language": "en",
      "original_title": "I am Thor",
      "genre_ids": [99, 10402],
      "title": "I am Thor",
      "vote_average": 7.1,
      "overview": "",
      "release_date": "2015-11-20"
    },
    {
      "poster_path": "/1erY8IzhIFK6s7CyvHcNiO8UymS.jpg",
      "popularity": 5.084,
      "vote_count": 27,
      "video": false,
      "media_type": "movie",
      "id": 106631,
      "adult": false,
      "backdrop_path": "/6UwmkaB1mRZ0fo5A79m5XpVA5RK.jpg",
      "original_language": "is",
      "original_title": "Hetjur Valhallar - Þór",
      "genre_ids": [12, 16, 35, 14, 10751],
      "title": "Thor - Ein hammermässiges Abenteuer",
      "vote_average": 5.4,
      "overview": "Im hohen Norden lebt Thor mit seiner Mutter in einem kleinen Dorf. Der tollpatschige Schmied träumt von großen Abenteuern und wilden Schlachten. Stattdessen flickt er die Töpfe der Dorfbewohner. Und auch sein Vater Odin, der König der Götter im fernen Walhalla, scheint sich nicht für ihn zu interessieren. Doch das soll sich bald ändern.",
      "release_date": "2013-04-10"
    },
    {
      "vote_count": 9,
      "popularity": 10.755,
      "id": 448363,
      "video": true,
      "media_type": "movie",
      "vote_average": 7.8,
      "title": "Thor: Assembling the Troupe",
      "release_date": "2011-09-13",
      "original_language": "en",
      "original_title": "Thor: Assembling the Troupe",
      "genre_ids": [99],
      "backdrop_path": null,
      "adult": false,
      "overview": "",
      "poster_path": "/7tgdZEWljiTokgayEmL4SFQuAGu.jpg"
    },
    {
      "poster_path": "/tSluJzwdsGCzDsfteja2HTtnLgP.jpg",
      "popularity": 7.426,
      "vote_count": 173,
      "video": false,
      "media_type": "movie",
      "id": 441829,
      "adult": false,
      "backdrop_path": "/pgw1LdRyanwJ7sM6DWqKuPDqxVX.jpg",
      "original_language": "en",
      "original_title": "Team Thor: Part 2",
      "genre_ids": [35, 99, 14, 878],
      "title": "Team Thor: Part 2",
      "vote_average": 7.2,
      "overview": "",
      "release_date": "2017-02-14"
    },
    {
      "poster_path": "/qHTdytIatZlT4Dzgb0oZDnukf4y.jpg",
      "popularity": 6.488,
      "vote_count": 0,
      "video": true,
      "media_type": "movie",
      "id": 448361,
      "adult": false,
      "backdrop_path": null,
      "original_language": "en",
      "original_title": "Thor: Hammer Time",
      "genre_ids": [],
      "title": "Thor: Hammer Time",
      "vote_average": 0,
      "overview": "",
      "release_date": "2011-09-13"
    },
    {
      "poster_path": "/24FTyQf7WbIekiiOcUL84Dpl0Lu.jpg",
      "popularity": 8.774,
      "vote_count": 6,
      "video": false,
      "media_type": "movie",
      "id": 103696,
      "adult": false,
      "backdrop_path": null,
      "original_language": "en",
      "original_title": "Adventures of Thunderstorm: Return of Thor",
      "genre_ids": [28, 12, 878, 53],
      "title": "Thunderstorm - Die Legende Thor lebt weiter",
      "vote_average": 2,
      "overview": "Als religiöse Fanatiker versuchen, Ragnarok, das nordische Ende der Welt, herbeizuführen, überträgt der Gott des Donners Thor magische Kräfte auf seinen Nachfahren Grant Farrel. Der junge Held, nun ausgestattet mit himmlischen Kräften, muss den Frieden Frieden bewahren und die Hölle daran hindern, auf die Erde zu kommen.",
      "release_date": "2011-05-02"
    },
    {
      "vote_count": 8,
      "popularity": 6.245,
      "id": 448360,
      "video": true,
      "media_type": "movie",
      "vote_average": 7.6,
      "title": "Thor: From Asgard to Earth",
      "release_date": "2011-09-13",
      "original_language": "en",
      "original_title": "Thor: From Asgard to Earth",
      "genre_ids": [99],
      "backdrop_path": null,
      "adult": false,
      "overview": "",
      "poster_path": "/3dZvXYVYMq7jEZ8kiKrvBEhybDA.jpg"
    },
    {
      "original_name": "Thor & Loki: Blood Brothers",
      "genre_ids": [16],
      "media_type": "tv",
      "name": "Thor & Loki: Blood Brothers",
      "popularity": 3.539,
      "origin_country": [],
      "vote_count": 2,
      "first_air_date": "2011-03-28",
      "backdrop_path": "/t12TuJxUYOjUhYxujR3ZWe2vQ7p.jpg",
      "original_language": "en",
      "id": 61753,
      "vote_average": 7,
      "overview": "",
      "poster_path": "/tvd33sRfEEf4fBlyqxTI62wY9qF.jpg"
    },
    {
      "poster_path": "/mP07mvujNc0gmRKtM7FwrTWSzFQ.jpg",
      "popularity": 5.377,
      "vote_count": 1,
      "video": false,
      "media_type": "movie",
      "id": 266708,
      "adult": true,
      "backdrop_path": null,
      "original_language": "en",
      "original_title": "Thor XXX: An Axel Braun Parody",
      "genre_ids": [35],
      "title": "Thor XXX: An Axel Braun Parody",
      "vote_average": 10,
      "overview": "",
      "release_date": "2013-11-11"
    },
    {
      "poster_path": "/9sO66aGKnfKcoBpiDBWFueb73fe.jpg",
      "popularity": 1.642,
      "vote_count": 11,
      "video": false,
      "media_type": "movie",
      "id": 183154,
      "adult": false,
      "backdrop_path": null,
      "original_language": "it",
      "original_title": "Thor il conquistatore",
      "genre_ids": [12, 14],
      "title": "Thor – Der unbesiegbare Barbar",
      "vote_average": 4,
      "overview": "Thor ist beim Schamanen Etna aufgewachsen, der seinen Zögling zu einem unbesiegbaren Barbaren erzogen hat. Von Etna erfährt Thor auch, dass seine Eltern vor vielen Jahren vom bösen Gnut getötet wurden und Thor deshalb bei ihm aufgewachsen ist. Nun, als erwachsener Mann, will Thor Rache an dem Mörder seiner Eltern nehmen.  Auf der Suche nach Gnut, lernt er in Ina nicht zur seine Frau kennen, sondern schenkt Ihr auch gleich ein Kind. Doch je länger Thor braucht um den Racheakt zu vollenden, umso gefährlicher wird das Unterfangen, denn Thor muss nicht nur das mächtige Schwert seinen Vaters finden, sondern auch seine Frau und das Baby nun aus den Klauen des grausamen Gnut befreien.",
      "release_date": "1983-02-05"
    },
    {
      "poster_path": null,
      "popularity": 2.954,
      "vote_count": 1,
      "video": false,
      "media_type": "movie",
      "id": 268802,
      "adult": false,
      "backdrop_path": null,
      "original_language": "en",
      "original_title": "Thor at the Bus Stop",
      "genre_ids": [],
      "title": "Thor at the Bus Stop",
      "vote_average": 7,
      "overview": "",
      "release_date": "2009-01-01"
    },
    {
      "poster_path": "/eerNwb9xM2qiapDuTaR1zs6e4A9.jpg",
      "popularity": 2.859,
      "vote_count": 3,
      "video": false,
      "media_type": "movie",
      "id": 248618,
      "adult": false,
      "backdrop_path": null,
      "original_language": "en",
      "original_title": "A Viking Saga: Son of Thor",
      "genre_ids": [12, 18],
      "title": "Die Wikinger 2 - Die Söhne Odins",
      "vote_average": 2.2,
      "overview": "Der kleine Helgi ist der einzige Überlebende eines Wikinger-Überfalls, seine Eltern wurden brutal ermordet, sein Heimatdorf bis auf die Grundmauern niedergebrannt. Sein Onkel Rurik (Erik Holmey) nimmt ihn auf und behandelt ihn wie seinen eigenen Sohn. Rurik ist ein fahrender Händler und bringt Helgi alles bei, was er wissen muss, um die Geschäfte auch alleine tätigen zu können. Viele Jahre später führt eine seiner Reisen den mittlerweile erwachsenen Helgi (Ken Vedsegaard) in ein fernes Königreich, das von den Männern beherrscht wird, die auch für den Tod seiner Eltern verantwortlich waren. Als er einen Rachefeldzug gegen die gefährlichen Krieger plant stellt Helgi erstaunt fest, dass er von unerwarteter Seite Hilfe bekommt, um seinen Idee in die Tat umzusetzen.",
      "release_date": "2008-04-12"
    }
  ]
}
